{
  "name": "UniteBright",
  "type": "project:application",
  "bundler": {
    "id": "cli",
    "displayName": "Aurelia-CLI"
  },
  "build": {
    "targets": [
      {
        "id": "web",
        "displayName": "Web",
        "port": 9000,
        "index": "dist/index.html",
        "baseDir": "dist",
        "output": "dist/scripts",
        "baseUrl": "scripts"
      }
    ],
    "options": {
      "minify": "prod",
      "sourcemaps": "dev & stage",
      "rev": false,
      "cache": "dev & stage"
    },
    "bundles": [
      {
        "name": "app-bundle.js",
        "source": [
          "**/*.{js,json,css,html}"
        ]
      },
      {
        "name": "vendor-bundle.js",
        "prepend": [
          "node_modules/bluebird/js/browser/bluebird.core.js",
          {
            "path": "node_modules/aurelia-cli/lib/resources/scripts/configure-bluebird-no-long-stacktraces.js",
            "env": "stage & prod"
          },
          {
            "path": "node_modules/aurelia-cli/lib/resources/scripts/configure-bluebird.js",
            "env": "dev"
          },
          "node_modules/@babel/polyfill/browser.js",
          "node_modules/requirejs/require.js"
        ],
        "dependencies": [
          "aurelia-bootstrapper",
          "aurelia-loader-default",
          "aurelia-pal-browser",
          {
            "name": "aurelia-testing",
            "env": "dev"
          },
          {
            "name": "fontawesome",
            "path": "../node_modules/@fortawesome/fontawesome-free/",
            "main": "js/fontawesome.min",
            "resources": [
              "js/all.min.js",
              "css/all.min.css"
            ]
          },
          "text"
        ]
      }
    ],
    "copyFiles": {
      "src/index.html": "dist",
      "src/assets/images/icons/*": "dist/assets/images/icons"
    },
    "loader": {
      "type": "require",
      "configTarget": "vendor-bundle.js",
      "includeBundleMetadataInConfig": "auto",
      "plugins": [
        {
          "name": "text",
          "extensions": [
            ".html",
            ".css"
          ],
          "stub": true
        }
      ]
    }
  },
  "platform": {
    "id": "web",
    "displayName": "Web",
    "port": 9000,
    "index": "dist/index.html",
    "baseDir": "dist",
    "output": "dist/scripts",
    "baseUrl": "scripts"
  },
  "transpiler": {
    "id": "babel",
    "displayName": "Babel",
    "fileExtension": ".js",
    "options": {
      "plugins": [
        [
          "@babel/plugin-transform-modules-amd",
          {
            "loose": true
          }
        ]
      ]
    },
    "source": "src/**/*.js"
  },
  "markupProcessor": {
    "id": "maximum",
    "displayName": "Maximum Minification",
    "fileExtension": ".html",
    "source": "src/**/*.html"
  },
  "cssProcessor": {
    "id": "sass",
    "displayName": "Sass",
    "fileExtension": ".scss",
    "source": "src/**/*.scss"
  },
  "jsonProcessor": {
    "id": "none",
    "displayName": "None",
    "fileExtension": ".json",
    "source": "src/**/*.json"
  },
  "editor": {
    "id": "sublime",
    "displayName": "Sublime"
  },
  "unitTestRunners": [
    {
      "id": "karma",
      "displayName": "Karma",
      "source": "test/unit/**/*.js"
    }
  ],
  "integrationTestRunner": {
    "id": "protractor",
    "displayName": "Protractor"
  },
  "paths": {
    "root": "src",
    "resources": "resources",
    "elements": "resources/elements",
    "attributes": "resources/attributes",
    "valueConverters": "resources/value-converters",
    "bindingBehaviors": "resources/binding-behaviors"
  },
  "testFramework": {
    "id": "jasmine",
    "displayName": "Jasmine"
  },
  "packageManager": "npm"
}